…
18     15      11   12600 12.84523    
19     16      11   13000 13.26650    
20     17      11   13400 13.67479    
21     13      12   12400 12.49000    
22     14      12   12800 12.96148    
23     15      12   13200 13.41641    
24     16      12   13600 13.85641    
25     17      12   14000 14.28286    
> 
> 
> #ex.2(a)
> library(readxl)
> student_test <- read_excel("data/Score-109.xlsx",  na = "NA", skip=1)
> student_test
# A tibble: 75 x 3
   ID    Calculus English
   <chr>    <dbl>   <dbl>
 1 No.1        72      62
 2 No.2        88      97
 3 No.3        76      66
 4 No.4        89      51
 5 No.5        46      15
 6 No.6        16      87
 7 No.7        32      51
 8 No.8        51       0
 9 No.9        73       1
10 No.10       99      14
# ... with 65 more rows
…
# A tibble: 5 x 3
  ID    Calculus English
  <chr>    <dbl>   <dbl>
1 No.71       69      96
2 No.72       51     100
3 No.73       37      50
4 No.74       33      92
5 No.75        4      37
> 
> 
> #ex.2(b) 印出"請問有哪些同學兩科成績同時不及格
> #將遺失值填入0
> student_test[is.na(student_test)] <- 0
> student_test
# A tibble: 75 x 3
   ID    Calculus English
   <chr>    <dbl>   <dbl>
 1 No.1        72      62
 2 No.2        88      97
 3 No.3        76      66
 4 No.4        89      51
 5 No.5        46      15
 6 No.6        16      87
 7 No.7        32      51
 8 No.8        51       0
 9 No.9        73       1
10 No.10       99      14
# ... with 65 more rows
…
