…
34 100.0   51   88     9
35  86.7   41   48     7
36 100.0   72   81     9
37  66.7   30    0     7
38  93.3   29   42     9
39 100.0   61   62     9
40 100.0   95  100     3
> Calculus_score_B <- read_excel("data/Calculus-score-B.xls", sheet = "工作表1",  na = "NA", skip=2)
New names:
* `0.070000000000000007` -> `0.070000000000000007...5`
* `0.070000000000000007` -> `0.070000000000000007...6`
* `0.080000000000000002` -> `0.080000000000000002...7`
* `0.080000000000000002` -> `0.080000000000000002...8`
> Calculus_score_B
# A tibble: 55 x 12
    座號   學號 姓名  性別  `0.070000000000~
   <dbl>  <dbl> <chr> <chr>            <dbl>
 1     1 4.05e8 史文羽~ 男                  60
 2     2 4.05e8 鄭樺妤~ 男                  80
 3     3 4.05e8 張敬安~ 男                  10
 4     4 4.05e8 何筑亦~ 女                  15
 5     5 4.05e8 張  儀~ 女                  30
 6     6 4.02e8 雷西萱~ 男                  75
 7     7 4.02e8 張麥笙~ 女                  60
 8     8 4.04e8 張水兆~ 男                   0
 9     9 4.05e8 柯榮品~ 男                   0
10    10 4.05e8 謝卡欣~ 男                  30
# ... with 45 more rows, and 7 more variables:
#   `0.070000000000000007...6` <dbl>,
#   `0.080000000000000002...7` <dbl>,
#   `0.080000000000000002...8` <dbl>,
#   `0.14999999999999999` <dbl>, `0.25` <dbl>,
#   `0.29999999999999999` <dbl>, Times <dbl>
…
28 100.0      50    93   9
29 100.0      34    71   9
30 100.0      82    65   9
31 100.0      51    70   9
32 100.0      52    47   9
33 100.0      22    88   7
34 100.0      51    88   9
35  86.7      41    48   7
36 100.0      72    81   9
37  66.7      30     0   7
38  93.3      29    42   9
39 100.0      61    62   9
40 100.0      95   100   3
> Calculus_score_B
# A tibble: 55 x 12
      NO        ID Name  Gender Quiz1 Quiz2 Quiz3 Quiz4
   <dbl>     <dbl> <chr> <chr>  <dbl> <dbl> <dbl> <dbl>
 1     1 404550465 史文羽~ 男        60    81   100    97
 2     2 404685071 鄭樺妤~ 男        80   100   100    92
 3     3 404685084 張敬安~ 男        10    40    62    93
 4     4 404685099 何筑亦~ 女        15    25    40    13
 5     5 404685100 張  儀~ 女        30    45    70    61
 6     6 401550816 雷西萱~ 男        75    78    67    58
 7     7 401555528 張麥笙~ 女        60    33    15    65
 8     8 403555042 張水兆~ 男         0    30    50    80
 9     9 404720052 柯榮品~ 男         0     0     5    NA
10    10 404720063 謝卡欣~ 男        30    25    30    10
# ... with 45 more rows, and 4 more variables:
#   TA <dbl>, Midterm <dbl>, Final <dbl>, ATT <dbl>
…
